<?xml version="1.0" encoding="UTF-8"?>
<svg width="78px" height="78px" viewBox="0 0 78 78" version="1.1" xmlns="http://www.w3.org/2000/svg" xmlns:xlink="http://www.w3.org/1999/xlink">
    <!-- Generator: Sketch 46.2 (44496) - http://www.bohemiancoding.com/sketch -->
    <title>Airplane Icon</title>
    <desc>Created with Sketch.</desc>
    <defs>
        <linearGradient x1="15.6743566%" y1="14.6705693%" x2="87.4539058%" y2="81.1873893%" id="linearGradient-1">
            <stop stop-color="#1C71B8" offset="0%"></stop>
            <stop stop-color="#09183F" stop-opacity="0.75" offset="100%"></stop>
        </linearGradient>
        <circle id="path-2" cx="35" cy="35" r="35"></circle>
        <filter x="-10.0%" y="-7.1%" width="120.0%" height="120.0%" filterUnits="objectBoundingBox" id="filter-3">
            <feOffset dx="0" dy="2" in="SourceAlpha" result="shadowOffsetOuter1"></feOffset>
            <feGaussianBlur stdDeviation="2" in="shadowOffsetOuter1" result="shadowBlurOuter1"></feGaussianBlur>
            <feColorMatrix values="0 0 0 0 0.466666667   0 0 0 0 0.466666667   0 0 0 0 0.466666667  0 0 0 0.5 0" type="matrix" in="shadowBlurOuter1"></feColorMatrix>
        </filter>
        <path d="M48.6858757,21.3138526 C48.39175,21.019727 47.9529642,20.9217014 47.5619761,21.0651617 L21.7042354,30.4866474 C21.2809863,30.6408848 20.9988101,31.0426133 21.0000038,31.4933791 C21.0000038,31.9441449 21.2821739,32.3458765 21.7054291,32.5001108 L32.1969748,36.3071489 L36.6388253,31.8665227 C36.9975219,31.5078261 37.5785864,31.5078261 37.937283,31.8665227 C38.2959796,32.2252193 38.2959796,32.8062838 37.937283,33.1649804 L33.5875629,37.5159248 L37.4983626,48.2945746 C37.6525999,48.7178237 38.0543285,49 38.5050943,49 L38.5062898,49 C38.9570556,49 39.3587872,48.7178299 39.5130215,48.2957684 L48.9345073,22.438946 C49.076786,22.0479884 48.979942,21.6091904 48.6858163,21.3138526 L48.6858757,21.3138526 Z" id="path-4"></path>
        <filter x="-7.1%" y="-7.1%" width="114.3%" height="114.3%" filterUnits="objectBoundingBox" id="filter-5">
            <feGaussianBlur stdDeviation="1.5" in="SourceAlpha" result="shadowBlurInner1"></feGaussianBlur>
            <feOffset dx="0" dy="1" in="shadowBlurInner1" result="shadowOffsetInner1"></feOffset>
            <feComposite in="shadowOffsetInner1" in2="SourceAlpha" operator="arithmetic" k2="-1" k3="1" result="shadowInnerInner1"></feComposite>
            <feColorMatrix values="0 0 0 0 0.466666667   0 0 0 0 0.466666667   0 0 0 0 0.466666667  0 0 0 0.5 0" type="matrix" in="shadowInnerInner1"></feColorMatrix>
        </filter>
    </defs>
    <g id="Join-the-Clan" stroke="none" stroke-width="1" fill="none" fill-rule="evenodd">
        <g id="Desktop-HD---Ver-2" transform="translate(-321.000000, -1471.000000)">
            <g id="How-to-Apply" transform="translate(220.000000, 1338.000000)">
                <g id="Step-1" transform="translate(30.000000, 111.000000)">
                    <g id="Airplane-Icon" transform="translate(75.000000, 24.000000)">
                        <g id="Oval-2">
                            <use fill="black" fill-opacity="1" filter="url(#filter-3)" xlink:href="#path-2"></use>
                            <use fill="url(#linearGradient-1)" fill-rule="evenodd" xlink:href="#path-2"></use>
                        </g>
                        <g id="Shape" fill-rule="nonzero">
                            <use fill="#F5F5F5" fill-rule="evenodd" xlink:href="#path-4"></use>
                            <use fill="black" fill-opacity="1" filter="url(#filter-5)" xlink:href="#path-4"></use>
                        </g>
                    </g>
                </g>
            </g>
        </g>
    </g>
</svg>