<?xml version="1.0" encoding="UTF-8"?>
<svg width="11px" height="20px" viewBox="0 0 11 20" version="1.1" xmlns="http://www.w3.org/2000/svg" xmlns:xlink="http://www.w3.org/1999/xlink">
    <!-- Generator: Sketch 46.2 (44496) - http://www.bohemiancoding.com/sketch -->
    <title>Dollar FAQ Inactive 2</title>
    <desc>Created with Sketch.</desc>
    <defs></defs>
    <g id="Join-the-Clan" stroke="none" stroke-width="1" fill="none" fill-rule="evenodd" fill-opacity="0.8">
        <g id="FAQ-Icons" transform="translate(-30.000000, -140.000000)" fill-rule="nonzero" fill="#F5F5F5">
            <g id="Inactive-2" transform="translate(30.000000, 140.000000)">
                <path d="M7.87203033,9.03313672 C7.09830986,8.59069502 6.24259846,8.25941625 5.44081101,7.92813748 C4.97140733,7.73497809 4.50200366,7.48569578 4.11459092,7.18248399 C3.31390848,6.54688843 3.47899536,5.52498514 4.41890771,5.11061042 C4.66710159,5.00054145 4.94334035,4.94442959 5.24765714,4.94442959 C6.3245894,4.8893951 7.34759769,5.08255449 8.34137876,5.55195817 C8.83884941,5.80015205 8.97697432,5.718139 9.1420612,5.2206794 C9.30824204,4.69624676 9.47333998,4.14374714 9.61146488,3.59124752 C9.72153385,3.23190177 9.58340895,2.98371894 9.25211913,2.84559404 C8.61652357,2.56934423 7.98092801,2.37619036 7.31837046,2.26502744 C6.43459207,2.12690253 6.43459207,2.12690253 6.43459207,1.24312414 C6.43459207,0 6.43459207,0 5.16340095,0 L4.61090133,0 C4.03033473,0.0280559306 3.92027681,0.110068974 3.92027681,0.718691504 L3.92027681,1.51937395 C3.92027681,2.29309442 3.92027681,2.29309442 3.17462332,2.56934423 C1.35093258,3.23190177 0.245822843,4.47502591 0.107697938,6.43684156 C-0.00237103574,8.17743636 0.908380386,9.36564204 2.34576339,10.2211877 C3.22954178,10.7456203 4.2244831,11.0780041 5.1632352,11.4923788 C5.52258095,11.6585597 5.8819267,11.8517246 6.18513849,12.0999074 C7.09698387,12.8455609 6.93079198,14.088685 5.85385972,14.5580887 C5.27329312,14.8062826 4.66576454,14.8624055 4.05823596,14.8062826 C3.09136163,14.6962136 2.17951626,14.4469368 1.32380485,13.9775332 C0.826334192,13.7012833 0.661247306,13.7843738 0.495055421,14.3368789 C0.356930516,14.8062826 0.218805612,15.2756863 0.080680707,15.7731569 C-0.0855001284,16.4087525 -0.0293882671,16.5738394 0.578151364,16.8781562 C1.35187183,17.2644639 2.20758324,17.4587228 3.06439965,17.5968477 C3.72695719,17.7069166 3.75502417,17.7349726 3.75502417,18.4255971 L3.75502417,19.3644044 C3.75502417,19.7507122 3.94818356,20 4.36255275,20 L5.7438018,20 C6.13010953,20 6.3243684,19.7787847 6.3243684,19.3924714 C6.3243684,18.9500297 6.35242433,18.535655 6.3243684,18.0943183 C6.29631247,17.6518766 6.49054923,17.4317608 6.904935,17.3205978 C7.87180933,17.044348 8.70055876,16.5468774 9.33615432,15.7731569 C11.0486821,13.5642358 10.3861246,10.4144631 7.87180933,9.03321407 L7.87203033,9.03313672 Z" id="Dollar-FAQ-Inactive-2"></path>
            </g>
        </g>
    </g>
</svg>