<?xml version="1.0" encoding="UTF-8"?>
<svg width="14px" height="20px" viewBox="0 0 14 20" version="1.1" xmlns="http://www.w3.org/2000/svg" xmlns:xlink="http://www.w3.org/1999/xlink">
    <!-- Generator: Sketch 46.2 (44496) - http://www.bohemiancoding.com/sketch -->
    <title>Flask FAQ Inactive 2</title>
    <desc>Created with Sketch.</desc>
    <defs></defs>
    <g id="Join-the-Clan" stroke="none" stroke-width="1" fill="none" fill-rule="evenodd" fill-opacity="0.8">
        <g id="FAQ-Icons" transform="translate(-156.000000, -140.000000)" fill-rule="nonzero" fill="#F5F5F5">
            <g id="Inactive-2" transform="translate(30.000000, 140.000000)">
                <g id="Flask-FAQ-Inactive-2" transform="translate(126.000000, 0.000000)">
                    <path d="M10.061561,6.76074797 L10.061561,3.5737561 C10.4261528,3.18694634 10.6537951,2.68631545 10.6537951,2.11720976 C10.6537951,1.09281951 9.92552195,0.250725203 8.92334959,0.0684292683 L8.80952846,0.0453099187 L4.84900813,0.0453099187 L4.73518699,0.0684292683 C3.7339252,0.227601301 3.00474146,1.09281951 3.00474146,2.11720976 C3.00474146,2.68631545 3.23238374,3.18694634 3.59697561,3.5737561 L3.59697561,6.76074797 C1.43437398,7.94430569 0.0232195122,10.2206829 0.0232195122,12.7479675 C0.0232195122,16.504065 3.07317073,19.531935 6.80718699,19.531935 C10.540065,19.531935 13.5911545,16.4819837 13.5911545,12.7479675 C13.6133851,10.2206829 12.224413,7.92217886 10.0617886,6.76074797 L10.061561,6.76074797 Z M6.82926829,18.1660813 C3.82461789,18.1660813 1.41115447,15.7305366 1.41115447,12.7479675 C1.41115447,10.4030244 2.89082927,8.39954472 4.98491057,7.64923577 L4.98491057,2.82253659 C4.64344715,2.77718569 4.39267642,2.48107317 4.39267642,2.1164813 C4.39267642,1.77501789 4.64344715,1.47890081 4.98491057,1.41042602 L8.69570732,1.41042602 C9.03717073,1.45577691 9.28794146,1.75188943 9.28794146,2.1164813 C9.28794146,2.48107317 9.03717073,2.75406179 8.69570732,2.82253659 L8.69570732,7.6483252 C10.7676163,8.39972683 12.2694634,10.403252 12.2694634,12.7470569 C12.2472326,15.7303089 9.8339187,18.1660813 6.82926829,18.1660813 Z" id="Shape"></path>
                    <path d="M10.8815285,12.7026667 C9.81179187,13.2486439 8.24042276,13.4762862 6.82926829,11.7236228 C5.69105691,10.3124228 4.43902439,10.1986016 3.43785366,10.4947187 C3.00569756,11.1322992 2.77805528,11.9059187 2.77805528,12.7026667 C2.77805528,14.9337431 4.5991935,16.7549268 6.83031545,16.7549268 C9.06050407,16.7549268 10.881665,14.979135 10.881665,12.7026667 L10.881665,12.7026667 L10.8815285,12.7026667 Z" id="Shape"></path>
                </g>
            </g>
        </g>
    </g>
</svg>