<?xml version="1.0" encoding="UTF-8"?>
<svg width="79px" height="78px" viewBox="0 0 79 78" version="1.1" xmlns="http://www.w3.org/2000/svg" xmlns:xlink="http://www.w3.org/1999/xlink">
    <!-- Generator: Sketch 46.2 (44496) - http://www.bohemiancoding.com/sketch -->
    <title>Flask Icon</title>
    <desc>Created with Sketch.</desc>
    <defs>
        <linearGradient x1="7.63278329e-15%" y1="0%" x2="115.741207%" y2="126.499251%" id="linearGradient-1">
            <stop stop-color="#0E395C" offset="0%"></stop>
            <stop stop-color="#0F395C" offset="0%"></stop>
            <stop stop-color="#3D314F" offset="16.3560113%"></stop>
            <stop stop-color="#572C48" offset="43.320474%"></stop>
            <stop stop-color="#C6182A" offset="100%"></stop>
        </linearGradient>
        <circle id="path-2" cx="35" cy="35" r="35"></circle>
        <filter x="-10.0%" y="-7.1%" width="120.0%" height="120.0%" filterUnits="objectBoundingBox" id="filter-3">
            <feOffset dx="0" dy="2" in="SourceAlpha" result="shadowOffsetOuter1"></feOffset>
            <feGaussianBlur stdDeviation="2" in="shadowOffsetOuter1" result="shadowBlurOuter1"></feGaussianBlur>
            <feColorMatrix values="0 0 0 0 0.466666667   0 0 0 0 0.466666667   0 0 0 0 0.466666667  0 0 0 0.5 0" type="matrix" in="shadowBlurOuter1"></feColorMatrix>
        </filter>
        <path d="M20.6262,13.8595333 L20.6262,7.3262 C21.3736133,6.53324 21.84028,5.50694667 21.84028,4.34028 C21.84028,2.24028 20.34732,0.513986667 18.2928667,0.14028 L18.0595333,0.0928853333 L9.94046667,0.0928853333 L9.70713333,0.14028 C7.65454667,0.466582667 6.15972,2.24028 6.15972,4.34028 C6.15972,5.50694667 6.62638667,6.53324 7.3738,7.3262 L7.3738,13.8595333 C2.94046667,16.2858267 0.0476,20.9524 0.0476,26.1333333 C0.0476,33.8333333 6.3,40.0404667 13.9547333,40.0404667 C21.6071333,40.0404667 27.8618667,33.7880667 27.8618667,26.1333333 C27.9074395,20.9524 25.0600467,16.2404667 20.6266667,13.8595333 L20.6262,13.8595333 Z M14,37.2404667 C7.84046667,37.2404667 2.89286667,32.2476 2.89286667,26.1333333 C2.89286667,21.3262 5.9262,17.2190667 10.2190667,15.6809333 L10.2190667,5.7862 C9.51906667,5.69323067 9.00498667,5.0862 9.00498667,4.33878667 C9.00498667,3.63878667 9.51906667,3.03174667 10.2190667,2.89137333 L17.8262,2.89137333 C18.5262,2.98434267 19.04028,3.59137333 19.04028,4.33878667 C19.04028,5.0862 18.5262,5.64582667 17.8262,5.7862 L17.8262,15.6790667 C22.0736133,17.21944 25.1524,21.3266667 25.1524,26.1314667 C25.1068267,32.2471333 20.1595333,37.2404667 14,37.2404667 Z" id="path-4"></path>
        <filter x="-7.2%" y="-5.0%" width="114.4%" height="110.0%" filterUnits="objectBoundingBox" id="filter-5">
            <feGaussianBlur stdDeviation="1.5" in="SourceAlpha" result="shadowBlurInner1"></feGaussianBlur>
            <feOffset dx="0" dy="1" in="shadowBlurInner1" result="shadowOffsetInner1"></feOffset>
            <feComposite in="shadowOffsetInner1" in2="SourceAlpha" operator="arithmetic" k2="-1" k3="1" result="shadowInnerInner1"></feComposite>
            <feColorMatrix values="0 0 0 0 0.466666667   0 0 0 0 0.466666667   0 0 0 0 0.466666667  0 0 0 0.5 0" type="matrix" in="shadowInnerInner1"></feColorMatrix>
        </filter>
        <path d="M22.3071333,26.0404667 C20.1141733,27.15972 16.8928667,27.6263867 14,24.0334267 C11.6666667,21.1404667 9.1,20.9071333 7.0476,21.5141733 C6.16168,22.8212133 5.69501333,24.4071333 5.69501333,26.0404667 C5.69501333,30.6141733 9.42834667,34.3476 14.0021467,34.3476 C18.5740333,34.3476 22.3074133,30.7072267 22.3074133,26.0404667 L22.3074133,26.0404667 L22.3071333,26.0404667 Z" id="path-6"></path>
        <filter x="-12.0%" y="-15.3%" width="124.1%" height="130.5%" filterUnits="objectBoundingBox" id="filter-7">
            <feGaussianBlur stdDeviation="1.5" in="SourceAlpha" result="shadowBlurInner1"></feGaussianBlur>
            <feOffset dx="0" dy="1" in="shadowBlurInner1" result="shadowOffsetInner1"></feOffset>
            <feComposite in="shadowOffsetInner1" in2="SourceAlpha" operator="arithmetic" k2="-1" k3="1" result="shadowInnerInner1"></feComposite>
            <feColorMatrix values="0 0 0 0 0.466666667   0 0 0 0 0.466666667   0 0 0 0 0.466666667  0 0 0 0.5 0" type="matrix" in="shadowInnerInner1"></feColorMatrix>
        </filter>
    </defs>
    <g id="Join-the-Clan" stroke="none" stroke-width="1" fill="none" fill-rule="evenodd">
        <g id="Desktop-HD---Ver-2" transform="translate(-800.000000, -1471.000000)">
            <g id="How-to-Apply" transform="translate(220.000000, 1338.000000)">
                <g id="Step-3" transform="translate(509.666667, 111.000000)">
                    <g id="Flask-Icon" transform="translate(75.003316, 24.000000)">
                        <g id="Oval-2">
                            <use fill="black" fill-opacity="1" filter="url(#filter-3)" xlink:href="#path-2"></use>
                            <use fill="url(#linearGradient-1)" fill-rule="evenodd" xlink:href="#path-2"></use>
                        </g>
                        <g id="Flask" transform="translate(21.000000, 14.700000)" fill-rule="nonzero">
                            <g id="Shape">
                                <use fill="#F5F5F5" fill-rule="evenodd" xlink:href="#path-4"></use>
                                <use fill="black" fill-opacity="1" filter="url(#filter-5)" xlink:href="#path-4"></use>
                            </g>
                            <g id="Shape">
                                <use fill="#F5F5F5" fill-rule="evenodd" xlink:href="#path-6"></use>
                                <use fill="black" fill-opacity="1" filter="url(#filter-7)" xlink:href="#path-6"></use>
                            </g>
                        </g>
                    </g>
                </g>
            </g>
        </g>
    </g>
</svg>