<?xml version="1.0" encoding="UTF-8"?>
<svg width="60px" height="60px" viewBox="0 0 60 60" version="1.1" xmlns="http://www.w3.org/2000/svg" xmlns:xlink="http://www.w3.org/1999/xlink">
    <!-- Generator: Sketch 46.2 (44496) - http://www.bohemiancoding.com/sketch -->
    <title>Globe Icon</title>
    <desc>Created with Sketch.</desc>
    <defs>
        <circle id="path-1" cx="25" cy="25" r="25"></circle>
        <filter x="-18.0%" y="-12.0%" width="136.0%" height="136.0%" filterUnits="objectBoundingBox" id="filter-2">
            <feOffset dx="0" dy="3" in="SourceAlpha" result="shadowOffsetOuter1"></feOffset>
            <feGaussianBlur stdDeviation="2.5" in="shadowOffsetOuter1" result="shadowBlurOuter1"></feGaussianBlur>
            <feColorMatrix values="0 0 0 0 0.466666667   0 0 0 0 0.466666667   0 0 0 0 0.466666667  0 0 0 0.7 0" type="matrix" in="shadowBlurOuter1"></feColorMatrix>
        </filter>
        <linearGradient x1="7.63278329e-15%" y1="0%" x2="115.741207%" y2="126.499251%" id="linearGradient-3">
            <stop stop-color="#0E395C" offset="0%"></stop>
            <stop stop-color="#0F395C" offset="0%"></stop>
            <stop stop-color="#3D314F" offset="16.3560113%"></stop>
            <stop stop-color="#572C48" offset="43.320474%"></stop>
            <stop stop-color="#C6182A" offset="100%"></stop>
        </linearGradient>
    </defs>
    <g id="Join-the-Clan" stroke="none" stroke-width="1" fill="none" fill-rule="evenodd">
        <g id="Desktop-HD---Ver-2" transform="translate(-215.000000, -1118.000000)">
            <g id="Why-Join" transform="translate(0.000000, 484.000000)">
                <g id="Value-Prop-3" transform="translate(220.000000, 636.000000)">
                    <g id="Globe-Icon">
                        <g id="Oval">
                            <use fill="black" fill-opacity="1" filter="url(#filter-2)" xlink:href="#path-1"></use>
                            <use fill="#FFFFFF" fill-rule="evenodd" xlink:href="#path-1"></use>
                        </g>
                        <path d="M25.5,12 C18.0539684,12 12,18.0539684 12,25.5 C12,32.9460316 18.0539684,39 25.5,39 C32.9460316,39 39,32.9460316 39,25.5 C39,18.0539684 32.9460316,12 25.5,12 Z M13.5341684,26.2395158 L18.3947368,26.2395158 C18.4513573,27.9736547 18.6500829,29.6210526 19.0197726,31.1276526 L14.9277095,31.1276526 C14.1316926,29.6499853 13.6487621,28.0013368 13.5344242,26.2395158 L13.5341684,26.2395158 Z M26.2392316,18.3660316 L26.2392316,13.62 C27.7457747,14.0751916 29.0813368,15.8648084 29.9905263,18.3660316 L26.2392316,18.3660316 Z M30.4446947,19.8725747 C30.8143958,21.3502421 31.0697305,22.9988905 31.0986063,24.7607116 L26.2380379,24.7607116 L26.2380379,19.8725747 L30.4446947,19.8725747 Z M24.7604842,13.6199432 L24.7604842,18.3659747 L21.0091895,18.3659747 C21.8906968,15.8369558 23.2551063,14.0749642 24.7604842,13.6199432 Z M24.7604842,19.8725747 L24.7604842,24.7607116 L19.8999158,24.7607116 C19.9565362,23.0265726 20.1841263,21.3501853 20.5538274,19.8725747 L24.7604842,19.8725747 Z M18.3947368,24.7607116 L13.5341684,24.7607116 C13.6474093,22.9988337 14.1314653,21.3501853 14.8986063,19.8725747 L18.9906695,19.8725747 C18.6498442,21.3791179 18.4233568,22.9988905 18.3944811,24.7607116 L18.3947368,24.7607116 Z M19.90128,26.2394874 L24.7618484,26.2394874 L24.7618484,31.1276242 L20.5552484,31.1276242 C20.1855474,29.6499568 19.9291042,28.0013084 19.9013368,26.2394874 L19.90128,26.2394874 Z M24.7607116,32.6342242 L24.7607116,37.3802558 C23.2541684,36.9250642 21.9186063,35.1354474 21.0094168,32.6342242 L24.7607116,32.6342242 Z M26.2394874,37.3802558 L26.2394874,32.6342242 L29.9907821,32.6342242 C29.1092747,35.1632432 27.7448653,36.9252347 26.2394874,37.3802558 L26.2394874,37.3802558 Z M26.2394874,31.1276242 L26.2394874,26.2394874 L31.1000558,26.2394874 C31.0434354,27.9736263 30.8158453,29.6500137 30.4461442,31.1276242 L26.2394874,31.1276242 Z M32.6052347,26.2394874 L37.4658032,26.2394874 C37.3525623,28.0013653 36.8685063,29.6500137 36.1013653,31.1276242 L32.0093021,31.1276242 C32.3501274,29.6210811 32.5766147,28.0013084 32.6054905,26.2394874 L32.6052347,26.2394874 Z M32.6052347,24.7607116 C32.5486143,23.0265726 32.3498886,21.3791747 31.9801989,19.8725747 L36.0722621,19.8725747 C36.8682789,21.3502421 37.3512095,22.9988905 37.4367,24.7607116 L32.6052347,24.7607116 Z M35.1342537,18.3659747 L31.5816221,18.3659747 C31.0420768,16.6607116 30.3026747,15.2396589 29.4211674,14.1593747 C31.7237274,14.9553916 33.7133147,16.4341674 35.1343674,18.3659747 L35.1342537,18.3659747 Z M21.5776958,14.1605116 C20.6961884,15.2407389 19.9579232,16.6895305 19.4172411,18.3671116 L15.8646095,18.3671116 C17.2867705,16.4342526 19.2762726,14.9554484 21.5778095,14.1605116 L21.5776958,14.1605116 Z M15.8656326,32.6341958 L19.4182642,32.6341958 C19.9578095,34.3394589 20.6972116,35.7605116 21.5787189,36.8407958 C19.2761589,36.0447789 17.2865716,34.5660032 15.8655189,32.6341958 L15.8656326,32.6341958 Z M29.4221905,36.8396589 C30.3036979,35.7594316 31.0419632,34.31064 31.5826453,32.6330589 L35.1352768,32.6330589 C33.7131158,34.5659179 31.7236137,36.0447221 29.4220768,36.8396589 L29.4221905,36.8396589 Z" id="Shape" fill="url(#linearGradient-3)" fill-rule="nonzero"></path>
                    </g>
                </g>
            </g>
        </g>
    </g>
</svg>