<?xml version="1.0" encoding="UTF-8"?>
<svg width="21px" height="20px" viewBox="0 0 21 20" version="1.1" xmlns="http://www.w3.org/2000/svg" xmlns:xlink="http://www.w3.org/1999/xlink">
    <!-- Generator: Sketch 46.2 (44496) - http://www.bohemiancoding.com/sketch -->
    <title>Globe FAQ Inactive 1</title>
    <desc>Created with Sketch.</desc>
    <defs>
        <path d="M46.6441821,0 C41.1286032,0 36.6441821,4.48442105 36.6441821,10 C36.6441821,15.5155789 41.1286032,20 46.6441821,20 C52.1597611,20 56.6441821,15.5155789 56.6441821,10 C56.6441821,4.48442105 52.1597611,0 46.6441821,0 Z M37.7806032,10.5477895 L41.3810242,10.5477895 C41.4229653,11.8323368 41.5701695,13.0526316 41.8440137,14.1686316 L38.8128558,14.1686316 C38.2232137,13.0740632 37.8654874,11.8528421 37.7807927,10.5477895 L37.7806032,10.5477895 Z M47.1917611,4.71557895 L47.1917611,1.2 C48.307719,1.53717895 49.2970242,2.86282105 49.9704979,4.71557895 L47.1917611,4.71557895 Z M50.306919,5.83153684 C50.5807716,6.92610526 50.7699085,8.14732632 50.7912979,9.45237895 L47.1908769,9.45237895 L47.1908769,5.83153684 L50.306919,5.83153684 Z M46.0963927,1.19995789 L46.0963927,4.71553684 L43.3176558,4.71553684 C43.9706242,2.84218947 44.9812979,1.53701053 46.0963927,1.19995789 Z M46.0963927,5.83153684 L46.0963927,9.45237895 L42.4959716,9.45237895 C42.5379127,8.16783158 42.7064979,6.92606316 42.9803506,5.83153684 L46.0963927,5.83153684 Z M41.3810242,9.45237895 L37.7806032,9.45237895 C37.8644853,8.14728421 38.2230453,6.92606316 38.7912979,5.83153684 L41.8224558,5.83153684 C41.5699927,6.94749474 41.4022242,8.14732632 41.3808348,9.45237895 L41.3810242,9.45237895 Z M42.4969821,10.5477684 L46.0974032,10.5477684 L46.0974032,14.1686105 L42.9814032,14.1686105 C42.7075506,13.0740421 42.5175927,11.8528211 42.4970242,10.5477684 L42.4969821,10.5477684 Z M46.0965611,15.2846105 L46.0965611,18.8001895 C44.9806032,18.4630105 43.9912979,17.1373684 43.3178242,15.2846105 L46.0965611,15.2846105 Z M47.1919506,18.8001895 L47.1919506,15.2846105 L49.9706874,15.2846105 C49.317719,17.1579579 48.3070453,18.4631368 47.1919506,18.8001895 L47.1919506,18.8001895 Z M47.1919506,14.1686105 L47.1919506,10.5477684 L50.7923716,10.5477684 C50.7504306,11.8323158 50.5818453,13.0740842 50.3079927,14.1686105 L47.1919506,14.1686105 Z M51.907319,10.5477684 L55.50774,10.5477684 C55.4238579,11.8528632 55.0652979,13.0740842 54.4970453,14.1686105 L51.4658874,14.1686105 C51.7183506,13.0526526 51.886119,11.8528211 51.9075085,10.5477684 L51.907319,10.5477684 Z M51.907319,9.45237895 C51.8653779,8.16783158 51.7181737,6.94753684 51.4443295,5.83153684 L54.4754874,5.83153684 C55.0651295,6.92610526 55.4228558,8.14732632 55.4861821,9.45237895 L51.907319,9.45237895 Z M53.7806664,4.71553684 L51.1490874,4.71553684 C50.7494242,3.45237895 50.201719,2.39974737 49.5487506,1.59953684 C51.2543506,2.18917895 52.728119,3.28456842 53.7807506,4.71553684 L53.7806664,4.71553684 Z M43.7387716,1.60037895 C43.0858032,2.40054737 42.53894,3.47372632 42.1384348,4.71637895 L39.5068558,4.71637895 C40.5603085,3.28463158 42.0340137,2.18922105 43.7388558,1.60037895 L43.7387716,1.60037895 Z M39.5076137,15.2845895 L42.1391927,15.2845895 C42.5388558,16.5477474 43.0865611,17.6003789 43.7395295,18.4005895 C42.0339295,17.8109474 40.5601611,16.7155579 39.5075295,15.2845895 L39.5076137,15.2845895 Z M49.5495085,18.3997474 C50.2024769,17.5995789 50.74934,16.5264 51.1498453,15.2837474 L53.7814242,15.2837474 C52.7279716,16.7154947 51.2542664,17.8109053 49.5494242,18.3997474 L49.5495085,18.3997474 Z" id="path-1"></path>
        <filter x="-10.0%" y="-10.0%" width="120.0%" height="120.0%" filterUnits="objectBoundingBox" id="filter-2">
            <feGaussianBlur stdDeviation="1.5" in="SourceAlpha" result="shadowBlurInner1"></feGaussianBlur>
            <feOffset dx="0" dy="1" in="shadowBlurInner1" result="shadowOffsetInner1"></feOffset>
            <feComposite in="shadowOffsetInner1" in2="SourceAlpha" operator="arithmetic" k2="-1" k3="1" result="shadowInnerInner1"></feComposite>
            <feColorMatrix values="0 0 0 0 0.466666667   0 0 0 0 0.466666667   0 0 0 0 0.466666667  0 0 0 0.5 0" type="matrix" in="shadowInnerInner1"></feColorMatrix>
        </filter>
    </defs>
    <g id="Join-the-Clan" stroke="none" stroke-width="1" fill="none" fill-rule="evenodd">
        <g id="FAQ-Icons" transform="translate(-66.000000, -90.000000)" fill-rule="nonzero">
            <g id="Inactive-1" transform="translate(30.000000, 90.000000)">
                <g id="Globe-FAQ-Inactive-1">
                    <use fill="#F5F5F5" fill-rule="evenodd" xlink:href="#path-1"></use>
                    <use fill="black" fill-opacity="1" filter="url(#filter-2)" xlink:href="#path-1"></use>
                </g>
            </g>
        </g>
    </g>
</svg>